Modelo
   |  | | | | | | | | | |  |  |  |  |  |  |  |  |  |  |  |
   |T |1|2|3|4|5|6|7|8|9|10|11|12|13|14|15|16|17|18|19|20|
   |P1| | | | | | | | | |  |  |  |  |  |  |  |  |  |  |  |
1º |P2| | | | | | | | | |  |  |  |  |  |  |  |  |  |  |  | 
   |P3| | | | | | | | | |  |  |  |  |  |  |  |  |  |  |  | 
   |P4| | | | | | | | | |  |  |  |  |  |  |  |  |  |  |  | 
   |P5| | | | | | | | | |  |  |  |  |  |  |  |  |  |  |  |

   |  |  |  |  |  |  |  |  |  |  |  |  |  |  |  |  |  |  |
   |T |21|22|23|24|25|26|27|28|29|30|31|32|33|34|35|36|37|
   |P1|  |  |  |  |  |  |  |  |  |  |  |  |  |  |  |  |  |
2º |P2|  |  |  |  |  |  |  |  |  |  |  |  |  |  |  |  |  |
   |P3|  |  |  |  |  |  |  |  |  |  |  |  |  |  |  |  |  |
   |P4|  |  |  |  |  |  |  |  |  |  |  |  |  |  |  |  |  |
   |P5|  |  |  |  |  |  |  |  |  |  |  |  |  |  |  |  |  |

   |  |  |  |  |  |  |  |  |  |  |  |  |  |  |  |  |  |  |
   |T |38|39|40|41|42|43|44|45|  |  |  |  |  |  |  |  |  |
   |P1|  |  |  |  |  |  |  |  |  |  |  |  |  |  |  |  |  |
3º |P2|  |  |  |  |  |  |  |  |  |  |  |  |  |  |  |  |  |
   |P3|  |  |  |  |  |  |  |  |  |  |  |  |  |  |  |  |  |
   |P4|  |  |  |  |  |  |  |  |  |  |  |  |  |  |  |  |  |
   |P5|  |  |  |  |  |  |  |  |  |  |  |  |  |  |  |  |  |

FCFS NO APROPIATIVO
   |  | | | | | | | | | |  |  |  |  |  |  |  |  |  |  |  |
   |T |1|2|3|4|5|6|7|8|9|10|11|12|13|14|15|16|17|18|19|20|
   |P1|X|X|X|X|X|X|X|X|X|X |F |  |  |  |  |  |  |  |  |  |
1º |P2| | | |E|E|E|E|E|E|E |X |X |X |X |X |X |X |X |X |F |
   |P3| | | | | |E|E|E|E|E |E |E |E |E |E |E |E |E |E |E |
   |P4| | | | | |E|E|E|E|E |E |E |E |E |E |E |E |E |E |X |
   |P5| | | | | | | | | |  |  |  |E |E |E |E |E |E |E |E |

   |  |  |  |  |  |  |  |  |  |  |  |  |  |  |  |  |  |  |
   |T |21|22|23|24|25|26|27|28|29|30|31|32|33|34|35|36|37|
   |P1|  |  |  |  |  |  |  |  |  |  |  |  |  |  |  |  |  |
2º |P2|  |  |  |  |  |  |  |  |  |  |  |  |  |  |  |  |  |
   |P3|E |E |E |E |E |X |X |X |X |X |X |X |X |X |X |X |X |
   |P4|X |X |X |X |X |F |  |  |  |  |  |  |  |  |  |  |  |
   |P5|E |E |E |E |E |E |E |E |E |E |E |E |E |E |E |E |E |

   |  |  |  |  |  |  |  |  |  |  |  |  |  |  |  |  |  |  |
   |T |38|39|40|41|42|43|44|45|  |  |  |  |  |  |  |  |  |
   |P1|  |  |  |  |  |  |  |  |  |  |  |  |  |  |  |  |  |
3º |P2|  |  |  |  |  |  |  |  |  |  |  |  |  |  |  |  |  |
   |P3|X |X |X |X |X |F |  |  |  |  |  |  |  |  |  |  |  |
   |P4|  |  |  |  |  |  |  |  |  |  |  |  |  |  |  |  |  |
   |P5|E |E |E |E |E |X |X |X |  |  |  |  |  |  |  |  |  |

TE1 = 0
TE2 = 11-4
TE3 = 26-6
TE4 = 20-6
TE5 = 43-13
~TE = (0+11-4+26-6+20-6+43-13)/5 = 14,2
SJF NO APROPIATIVO
   |  | | | | | | | | | |  |  |  |  |  |  |  |  |  |  |  |
   |T |1|2|3|4|5|6|7|8|9|10|11|12|13|14|15|16|17|18|19|20|
   |P1|X|X|X|X|X|X|X|X|X|X |F |  |  |  |  |  |  |  |  |  |FINISHED E = 0
1º |P2| | | |E|E|E|E|E|E|E |E |E |E |E |E |E |E |E |E |X |X 1 DE 9
   |P3| | | | | |E|E|E|E|E |E |E |E |E |E |E |E |E |E |E |X 0 DE 17  
   |P4| | | | | |E|E|E|E|E |X |X |X |X |X |X |F |  |  |  |FINISHED E = 11 - 6
   |P5| | | | | | | | | |  |  |  |E |E |E |E |X |X |X |F |FINISHED E = 17 - 13

   |  |  |  |  |  |  |  |  |  |  |  |  |  |  |  |  |  |  |
   |T |21|22|23|24|25|26|27|28|29|30|31|32|33|34|35|36|37|
   |P1|  |  |  |  |  |  |  |  |  |  |  |  |  |  |  |  |  |FINISHED E = 0
2º |P2|X |X |X |X |X |X |X |X |F |  |  |  |  |  |  |  |  |FINISHED E = 20 - 4 
   |P3|E |E |E |E |E |E |E |E |X |X |X |X |X |X |X |X |X |X 9 DE 17
   |P4|  |  |  |  |  |  |  |  |  |  |  |  |  |  |  |  |  |FINISHED E = 11 - 6
   |P5|  |  |  |  |  |  |  |  |  |  |  |  |  |  |  |  |  |FINISHED E = 17 - 13
   
   |  |  |  |  |  |  |  |  |  |  |  |  |  |  |  |  |  |  |
   |T |38|39|40|41|42|43|44|45|  |  |  |  |  |  |  |  |  |
   |P1|  |  |  |  |  |  |  |  |  |  |  |  |  |  |  |  |  |FINISHED E = 0
3º |P2|  |  |  |  |  |  |  |  |  |  |  |  |  |  |  |  |  |FINISHED E = 20 - 4 
   |P3|X |X |X |X |X |X |X |X |  |  |  |  |  |  |  |  |  |FINISHED E = 29 - 6
   |P4|  |  |  |  |  |  |  |  |  |  |  |  |  |  |  |  |  |FINISHED E = 11 - 6
   |P5|  |  |  |  |  |  |  |  |  |  |  |  |  |  |  |  |  |FINISHED E = 17 - 13

~TE = (0+20-4+29-6+11-6+17-13)/5 = 10,4
SRTF

   |  | | | | | | | | | |  |  |  |  |  |  |  |  |  |  |  |
   |T |1|2|3|4|5|6|7|8|9|10|11|12|13|14|15|16|17|18|19|20|
   |P1|X|X|X|X|X|X|X|X|X|X |F |  |  |  |  |  |  |  |  |  | FINISHED E=0
1º |P2| | | |E|E|E|E|E|E|E |E |E |E |E |E |E |E |E |E |X | X = 1 E = 14
   |P3| | | | | |E|E|E|E|E |E |E |E |E |E |E |E |E |E |E | E = 15 X = 0
   |P4| | | | | |E|E|E|E|E |X |X |I |E |E |X |X |X |X |F | FINISHED E=7 X = 6
   |P5| | | | | | | | | |  |  |  |X |X |X |F |  |  |  |  | FINISHED E=0 X = 3

   |  |  |  |  |  |  |  |  |  |  |  |  |  |  |  |  |  |  |
   |T |21|22|23|24|25|26|27|28|29|30|31|32|33|34|35|36|37|
   |P1|  |  |  |  |  |  |  |  |  |  |  |  |  |  |  |  |  | FINISHED E = 0
2º |P2|X |X |X |X |X |X |X |X |F |  |  |  |  |  |  |  |  | FINISHED E = 24 X = 9
   |P3|E |E |E |E |E |E |E |E |X |X |X |X |X |X |X |X |X | E = 9 + 15 = 21 X = 9
   |P4|  |  |  |  |  |  |  |  |  |  |  |  |  |  |  |  |  | FINISHED E = 8
   |P5|  |  |  |  |  |  |  |  |  |  |  |  |  |  |  |  |  | FINISHED E = 0

   |  |  |  |  |  |  |  |  |  |  |  |  |  |  |  |  |  |  |
   |T |38|39|40|41|42|43|44|45|  |  |  |  |  |  |  |  |  |
   |P1|  |  |  |  |  |  |  |  |  |  |  |  |  |  |  |  |  | FINISHED E = 0
3º |P2|  |  |  |  |  |  |  |  |  |  |  |  |  |  |  |  |  | FINISHED E = 16
   |P3|X |X |X |X |X |X |X |X |  |  |  |  |  |  |  |  |  | FINISHED X = 9 + 8 = 17 E= 23
   |P4|  |  |  |  |  |  |  |  |  |  |  |  |  |  |  |  |  | FINISHED E = 8 X = 6
   |P5|  |  |  |  |  |  |  |  |  |  |  |  |  |  |  |  |  | FINISHED E = 0 X = 3
   
~TE= (0 + 29 - 6)
